{
  "94cf72a915b206e31f961f237bcb7b6c5dcc48437f8bbc46841213eb2e2761f9": true,
  "bc15d86e5380bb21878b80b349dc8ee738c6caa700ffbf2a3d5efa76ae0edc74": true,
  "3b95498a6236a32194b5942cc75bd16b9cde5667037a3f959bc8435961cb7971": true,
  "20f26bd5f82ada9adce18c07e068770de7112d8c7393cd6ae6fe7f7e2904b20a": true,
  "cf862868432b5b7341a8c7b7d1a72c83dea9b2f1ae751432883cb3ab6ea598bd": true,
  "95f0f12e19a1e4a946929907dc809aaf5a75407f210c5bebdf330381dca270e2": true,
  "fd01a99bbd49e3ca1de4ba1853359610fb0a02ac58e1e46f4cf03345c96f0e10": true,
  "c3c50f406cf37ec51d7283c21ac75fd8cb1d8d7b3179931bf8bdf8221799b146": true,
  "251f68a913f8ee0206a260137cc9c3b423946c5c331f22caf7afbd5105da81ae": true,
  "5202c99cd975654a641298884f7e540d5162c18e122482978521860859f7dc1e": true,
  "c78573a55563c0a7f9fc915978bb7d4a9b6956dcc2af09b11d5607653131b883": true,
  "e3e650f6ea284f60162b806c7f5a6d7fcca7c046fb00ea9069a71466783490f2": true,
  "2f53d31185796c2258f49eb3f66a05a21ab7481b672b9ad83dff3963bff1511e": true,
  "7c2e8cf0dd111a81322018cb915acd9e02f14376fcdf3593d20ced3cb6eb41d6": true,
  "e552defabee53c94ea42ffdbc03437edcf1299f912e02678bcea9f30139e2c1c": true,
  "cf07884feb155b9d01ae0e001eba4b0cbc102504f5849289e1044ef31ecf1836": true,
  "37a0da881a42a481069e09dabad17d4816f05eb655a0b03ec9301c31db9f255e": true,
  "919d6c8ee5d06e2d56874a892044bf66f672d7b7fc94bf66d70fdb6b8dfc4078": true,
  "80f44f6ea3228ea423b9b61b1b395c6c84326b23f52321d90f7b313d13cd79a3": true,
  "71f72ca454d9f914380ce30cb9b639007532c5b2c11d8b2f48e0ea9f61944f70": true,
  "29b98a666ba49d22a9e92be088883028b482465787f9e5cbf10dac8f59cb27cc": true,
  "24f0fe2019716a888330838562b6e2960df4578da08e78d0ad00873f2fd0dc68": true,
  "0b09cda0d1d9e160cbbdc15ede82be09efe2f1085f40c78087970978c5a1dee3": true,
  "6a9d196572dad1b91751665650fd05aed7ba163e173b8419d89c9c17b3a5fb2f": true,
  "e5563046180e9be36bcbb1af80d48a9effd28b85979313d73b748df3eaa1661b": true,
  "e821b842316339cfe6646bdab516bc5805e1fc9dbf446ea223be5f1e979b5795": true,
  "23784843fa67258a41d586414556cb4e54719b1d05c184541f84731c73184be1": true,
  "4a43b6103a72aa54a62636f8767cac58a6d0678c037514fb8ad890bbc1d997aa": true,
  "b39fecd04f54dee5f1f86484469c9ebff84e398d08d12a0b070084fcb59b4251": true,
  "10969ca499f82672f7c95e151d4b157acf0fe65fa25e666b67194bf34a47a0c5": true,
  "225c8d3f8e586d0d79d8279866d5e91e04f6fd30033fe77bc5a35ad0d355f493": true,
  "a5b96011e70c5efaf3bc3ba4114ae0012e86210db17811ddcb3facee96f26c53": true,
  "b1282df924ba9b2923161739dbf7a017af877adeca39a136ce2542f10e322107": true,
  "c3e0c78288b4480042740257266effb3b01b7d0dada1f6358217541ac15ee24c": true,
  "a00f5badfd605024a4615bb8f6320885731facc3c692ec03f69f089b49ce68fc": true,
  "b577de7ed378d75af979e8290dbea5c066ff5c595c14ecd28656f25ad718d514": true,
  "33094d67e09d1903c8c7a5e02147687dad3876e6a2d0399a904df241392e85ad": true,
  "9e4892424b1bb01384a42165504cb5de887496dceb00b838d239190cdc6bf16f": true,
  "8bed51f6c8dac26e6543fc4a2fcb27715b9a81f958e174b8ceede205814f1b4d": true,
  "7e991909ac7ce52175a583a53101ada39b33f1fe25d95284160a1870a0d6f59a": true,
  "4a451a0b61c37cba3227541920680deea429873753143ff40cd65206b716a289": true,
  "9706240336679d7b7c8f3f464769842e453977101be69b0752f949cb8124acae": true,
  "a76b24382eb6389c677901963c8511497d0400ef045fa4a8606e001a948761fe": true,
  "e54bcc116d85a7a202902dacb01a8756f6e4a6243b373afc56b5b51e2d1d2368": true,
  "77bc852c245ed215fc0a6111d4e9858176b537ad11fb40b515c5d7d793d9b450": true,
  "c63c8ba30b10d0f98cb4c8988220aabc849131e28b15a00ddd5c18cfdce85c35": true,
  "ac0e706c94ec77b9942fd1ca6372fb5b4e0965b0018d18d6c0a5eea519c15d79": true,
  "f5032865e2945a10018abcd81682099762d911b2615f5ac824a93322bc48f5ca": true,
  "e01bb20ef4acc35bf14f0959399c11bc3ebfe81b25ca2b01aa98b54a3cd4b67f": true,
  "d1b1fa114ac717d2ef38a6038522067ca26d283e42f2930be2377f776eb69d57": true,
  "f8d9d4f83be4d88f0bc50affdc9c2b3dd41663a79940231488bb421fb074434c": true,
  "8cc0d221c44d29dc23afaa0f27fc42cd26acdca03a9ce9aa11e0b6251809409b": true,
  "8f24046ba0630e5b1f6cd3df26ceb934a21535430af853bb7c9675a5a859c233": true,
  "cb8e4b2ab20df6c44f0ab2c8ce40900fe2124504d5086497e0ec7fc1d15c73df": true,
  "4583a462851220bab1582aaad30a57d0000f302237318521bd43d8af3b84d004": true,
  "3689e3cc2a863df9ea140a46561bc3a2ae8d6ff250b61773008d0052ff0e16ae": true,
  "5c9c69e57cf266bebc1d24e07f9a58ac5c8f624153d0879646af08293cd83eff": true,
  "26c499d30f6dc38b7ba6b6a5f2ac0deaca44682d189283508bfcf8c49d8efa2a": true,
  "00c90e384a99c9eea10c61b9f4383cd876e761e59b6ed56fdceedbbdd1aea153": true,
  "8121562873ef840c348dc9fcd67fa55239c040d847fd34c1fcfcd2a9570aaad6": true,
  "d3e2919a199525d6f925ef669842f03122501dbd026de62c3a36c01ad74e1377": true,
  "c1db0613e07cad1ae2055087e93c88392e8deec18f36ad31e60f199c0336a41f": true,
  "0467263042fce0cf290e7030539944b4d08f706aa0b1a27693db75aba73d444a": true,
  "268846982ee92f0a8933e0fd385bba961734f8cc6428f7ba925b4470d491ee98": true,
  "1ff0c2f2baf73f11f3242f051f172ac2da70dcd8e78f1e75dbfaa27ff609e911": true,
  "dae06a06b10abb666f293b7b629adbf4417f63740c54c371243efe4eb960665b": true,
  "e7e66a2892e5d43b4b652bc525dbb355004b6277a37ae7cb7aba4c0b50f7c3ba": true,
  "c80394bb92715cc40d1390248176d69bab267708b610da0efa260841b0534cc4": true,
  "f7c572cfb989b9454781f667b71e05b98fa029fbcf208f31581fdb0bc83457c7": true,
  "7b4f5d8a49d25a66fdbac3ec7c7539b6d86da835651508c289a83ca3722e53fd": true,
  "43bdada93b3f1f0d9baa5b087fb8232d77e67285929f9ffe41d69e46f8c4451a": true,
  "6e50e0ce87244472a9843434321885d80e01a7180e32fc5e1346386c540adf05": true,
  "1cc86cb674b95bdca0124243d69bbcb5cc7f884d529318245507f502b19be4cb": true,
  "2499ed1ed57678b408395a33d666cb0c215c6ed81392824d245a05d3c0461c15": true,
  "a729322f7ada6e4e8d81fc702a7c16852cb915e496d95b784e615aec41bf5a2d": true,
  "a90c3606b5aedd3668413f4d8c9e1a96921120c17953b7cb94ebd39ebef17e16": true,
  "6fdf7c0c8558c19b784bb8ae88bf492b04b303128f724001483994513c1391b6": true,
  "b7890cb67d77fca89a62230bc73d8df6569f2e94e669f568163171447740c859": true,
  "0880b4e0d364716712a462dd48ffa84df376ae7bae7bbaa8e47747ac075f562f": true,
  "55476b7ef7808f72c0dabe43ebdbb6ea1be3fc06f6e2b0b18a5b321679ecb8b5": true
}